<?xml version="1.0" encoding="UTF-8" standalone="no"?>
<!DOCTYPE svg PUBLIC "-//W3C//DTD SVG 1.1//EN" "http://www.w3.org/Graphics/SVG/1.1/DTD/svg11.dtd">
<svg version="1.1" id="Layer_1" xmlns="http://www.w3.org/2000/svg" xmlns:xlink="http://www.w3.org/1999/xlink" x="0px" y="0px" width="24px" height="24px" viewBox="0 0 24 24" enable-background="new 0 0 24 24" xml:space="preserve">  <image id="image0" width="24" height="24" x="0" y="0"
    href="data:image/png;base64,iVBORw0KGgoAAAANSUhEUgAAABgAAAAYCAQAAABKfvVzAAAABGdBTUEAALGPC/xhBQAAACBjSFJN
AAB6JgAAgIQAAPoAAACA6AAAdTAAAOpgAAA6mAAAF3CculE8AAAAAmJLR0QA/4ePzL8AAAAJcEhZ
cwAACxMAAAsTAQCanBgAAAAHdElNRQfnBxUKNxnriXcFAAAA1UlEQVQ4y82Rvw7BUBTGf25VDIwG
A4NBYvIcNqvF2MELWGsweAdzxewRPAWRGIpEpAkTiaS1cPvHbauJiO8u53w53/nOORf+EgUmHPDe
3h2LAV3aCL9YA8YMKSsazVlwQ6eC4PgiBdCPcV7KqOGTAqjGCM4yKoYFO2W5o+4iAEMhcZiqBTkZ
9RIvOQs6ZEI+kps0A9kaU7VDEF4oc9MdRmkjfXEHxfzJO7gR3sOm8/k/WADY1H2H6wcL1IIjbRNL
908HNEmdEJTQYwQrWlww2GS96g/wAADyLw4Ypp8eAAAAJXRFWHRkYXRlOmNyZWF0ZQAyMDIzLTA3
LTIxVDA4OjU1OjI1KzAyOjAwcucVlQAAACV0RVh0ZGF0ZTptb2RpZnkAMjAyMy0wNy0yMVQwODo1
NToyNSswMjowMAO6rSkAAAAASUVORK5CYII=" />
</svg>
